…
### Difference scores

This is by far the most common outcome measure I have come across, so
lets start with that.

Our data will be analysed so that we have two ‘bias’ or ‘difference
score’ outcomes. So, within each block, we will take the average RT in
congruent trials and subtract the average RT in incongruent trials.
Calculating the final scores for each participant and for each block
separately might look a bit like this

    # A tibble: 120 x 5
    # Groups:   participant_number, block_name [120]
       participant_number block_name congruent incongruent     bias
                    <int> <fct>          <dbl>       <dbl>    <dbl>
     1                  1 A               483.        500. -17.4   
     2                  1 B               519.        481.  38.0   
     3                  2 A               505.        525. -19.4   
     4                  2 B               530.        504.  26.3   
     5                  3 A               502.        422.  80.1   
     6                  3 B               475.        520. -44.3   
     7                  4 A               515.        477.  37.9   
     8                  4 B               482.        487.  -4.64  
     9                  5 A               496.        497.  -0.0303
    10                  5 B               532.        554. -21.6   
    # ... with 110 more rows
…
